[
	{
	  "name": "Carrots",
	  "kind": "vegetable",
	  "considered": "vegetable",
	  "link": "https://simple.wikipedia.org/wiki/Carrot"
	},
	{
	  "name": "Cabbages",
	  "kind": "vegetable",
	  "considered": "vegetable",
	  "link": "https://simple.wikipedia.org/wiki/Cabbage"
	},
	{
	  "name": "Broccoli",
	  "kind": "vegetable",
	  "considered": "vegetable",
	  "link": "https://simple.wikipedia.org/wiki/Broccoli"
	},
	{
	  "name": "Spinach",
	  "kind": "vegetable",
	  "considered": "vegetable",
	  "link": "https://simple.wikipedia.org/wiki/Spinach"
	},
	{
	  "name": "Potatoes",
	  "kind": "vegetable",
	  "considered": "vegetable",
	  "link": "https://simple.wikipedia.org/wiki/Potato"
	},
	{
	  "name": "Apple",
	  "kind": "fruit",
	  "considered": "fruit",
	  "link": "https://simple.wikipedia.org/wiki/Apple"
	},
	{
	  "name": "Apricot",
	  "kind": "fruit",
	  "considered": "fruit",
	  "link": "https://simple.wikipedia.org/wiki/Apricot"
	},
	{
	  "name": "Banana",
	  "kind": "berry",
	  "considered": "fruit",
	  "link": "https://simple.wikipedia.org/wiki/Banana"
	},
	{
	  "name": "Blackberry",
	  "kind": "fruit",
	  "considered": "berry",
	  "link": "https://simple.wikipedia.org/wiki/Blackberry"
	},
	{
	  "name": "Blackcurrant",
	  "kind": "fruit",
	  "considered": "fruit",
	  "link": "https://simple.wikipedia.org/wiki/Blackcurrant"
	},
	{
	  "name": "Blueberry",
	  "kind": "berry",
	  "considered": "berry",
	  "link": "https://simple.wikipedia.org/wiki/Blueberry"
	},
	{
	  "name": "Cherry",
	  "kind": "fruit",
	  "considered": "fruit",
	  "link": "https://simple.wikipedia.org/wiki/Cherry"
	},
	{
	  "name": "Cloudberry",
	  "kind": "fruit",
	  "considered": "berry",
	  "link": "https://simple.wikipedia.org/wiki/Cloudberry"
	},
	{
	  "name": "Coconut",
	  "kind": "fruit",
	  "considered": "fruit",
	  "link": "https://simple.wikipedia.org/wiki/Coconut"
	},
	{
	  "name": "Cranberry",
	  "kind": "berry",
	  "considered": "berry",
	  "link": "https://simple.wikipedia.org/wiki/Cranberry"
	},
	{
	  "name": "Date",
	  "kind": "fruit",
	  "considered": "fruit",
	  "link": "https://simple.wikipedia.org/wiki/Date_palm"
	},
	{
	  "name": "Dragonfruit",
	  "kind": "fruit",
	  "considered": "fruit",
	  "link": "https://simple.wikipedia.org/wiki/Dragonfruit"
	},
	{
	  "name": "Durian",
	  "kind": "fruit",
	  "considered": "fruit",
	  "link": "https://simple.wikipedia.org/wiki/Durian"
	},
	{
	  "name": "Elderberry",
	  "kind": "berry",
	  "considered": "berry",
	  "link": "https://simple.wikipedia.org/wiki/Elderberry"
	},
	{
	  "name": "Fig",
	  "kind": "fruit",
	  "considered": "fruit",
	  "link": "https://simple.wikipedia.org/wiki/Fig"
	},
	{
	  "name": "Goji berry",
	  "kind": "berry",
	  "considered": "berry",
	  "link": "https://simple.wikipedia.org/wiki/Goji_berry"
	},
	{
	  "name": "Grape",
	  "kind": "berry",
	  "considered": "fruit",
	  "link": "https://simple.wikipedia.org/wiki/Grape"
	},
	{
	  "name": "Grapefruit",
	  "kind": "fruit",
	  "considered": "fruit",
	  "link": "https://simple.wikipedia.org/wiki/Grapefruit"
	},
	{
	  "name": "Guava",
	  "kind": "fruit",
	  "considered": "fruit",
	  "link": "https://simple.wikipedia.org/wiki/Guava"
	},
	{
	  "name": "Jackfruit",
	  "kind": "fruit",
	  "considered": "fruit",
	  "link": "https://simple.wikipedia.org/wiki/Jackfruit"
	},
	{
	  "name": "Kiwifruit",
	  "kind": "fruit",
	  "considered": "fruit",
	  "link": "https://simple.wikipedia.org/wiki/Kiwifruit"
	},
	{
	  "name": "Kumquat",
	  "kind": "fruit",
	  "considered": "fruit",
	  "link": "https://simple.wikipedia.org/wiki/Kumquat"
	},
	{
	  "name": "Lemon",
	  "kind": "fruit",
	  "considered": "fruit",
	  "link": "https://simple.wikipedia.org/wiki/Lemon"
	},
	{
	  "name": "Lime",
	  "kind": "fruit",
	  "considered": "fruit",
	  "link": "https://simple.wikipedia.org/wiki/Lime"
	},
	{
	  "name": "Lychee",
	  "kind": "fruit",
	  "considered": "fruit",
	  "link": "https://simple.wikipedia.org/wiki/Lychee"
	},
	{
	  "name": "Mango",
	  "kind": "fruit",
	  "considered": "fruit",
	  "link": "https://simple.wikipedia.org/wiki/Mango"
	},
	{
	  "name": "Watermelon",
	  "kind": "berry",
	  "considered": "fruit",
	  "link": "https://simple.wikipedia.org/wiki/Watermelon"
	},
	{
	  "name": "Nectarine",
	  "kind": "fruit",
	  "considered": "fruit",
	  "link": "https://simple.wikipedia.org/wiki/Nectarine"
	},
	{
	  "name": "Olive",
	  "kind": "fruit",
	  "considered": "fruit",
	  "link": "https://simple.wikipedia.org/wiki/Olive_(fruit)"
	},
	{
	  "name": "Orange",
	  "kind": "fruit",
	  "considered": "fruit",
	  "link": "https://simple.wikipedia.org/wiki/Orange_(fruit)"
	},
	{
	  "name": "Papaya",
	  "kind": "fruit",
	  "considered": "fruit",
	  "link": "https://simple.wikipedia.org/wiki/Papaya"
	},
	{
	  "name": "Passionfruit",
	  "kind": "fruit",
	  "considered": "fruit",
	  "link": "https://simple.wikipedia.org/wiki/Passionfruit"
	},
	{
	  "name": "Peach",
	  "kind": "fruit",
	  "considered": "fruit",
	  "link": "https://simple.wikipedia.org/wiki/Peach"
	},
	{
	  "name": "Pear",
	  "kind": "fruit",
	  "considered": "fruit",
	  "link": "https://simple.wikipedia.org/wiki/Pear"
	},
	{
	  "name": "Persimmon",
	  "kind": "berry",
	  "considered": "fruit",
	  "link": "https://simple.wikipedia.org/wiki/Persimmon"
	},
	{
	  "name": "Plum",
	  "kind": "fruit",
	  "considered": "fruit",
	  "link": "https://simple.wikipedia.org/wiki/Plum"
	},
	{
	  "name": "Pineapple",
	  "kind": "fruit",
	  "considered": "fruit",
	  "link": "https://simple.wikipedia.org/wiki/Pineapple"
	},
	{
	  "name": "Pomegranate",
	  "kind": "fruit",
	  "considered": "fruit",
	  "link": "https://simple.wikipedia.org/wiki/Pomegranate"
	},
	{
	  "name": "Raspberry",
	  "kind": "fruit",
	  "considered": "berry",
	  "link": "https://simple.wikipedia.org/wiki/Raspberry"
	},
	{
	  "name": "Rambutan",
	  "kind": "fruit",
	  "considered": "fruit",
	  "link": "https://simple.wikipedia.org/wiki/Rambutan"
	},
	{
	  "name": "Redcurrant",
	  "kind": "fruit",
	  "considered": "fruit",
	  "link": "https://simple.wikipedia.org/wiki/Redcurrant"
	},
	{
	  "name": "Satsuma",
	  "kind": "fruit",
	  "considered": "fruit",
	  "link": "https://simple.wikipedia.org/wiki/Satsuma"
	},
	{
	  "name": "Star fruit",
	  "kind": "fruit",
	  "considered": "fruit",
	  "link": "https://simple.wikipedia.org/wiki/Star_fruit"
	},
	{
	  "name": "Strawberry",
	  "kind": "fruit",
	  "considered": "berry",
	  "link": "https://simple.wikipedia.org/wiki/Strawberry"
	},
	{
	  "name": "Ugli fruit",
	  "kind": "fruit",
	  "considered": "fruit",
	  "link": "https://simple.wikipedia.org/wiki/Ugli_fruit"
	},
	{
	  "name": "Yuzu",
	  "kind": "fruit",
	  "considered": "fruit",
	  "link": "https://simple.wikipedia.org/wiki/Yuzu"
	},
	{
	  "name": "Avocado",
	  "kind": "fruit",
	  "considered": "vegetable",
	  "link": "https://simple.wikipedia.org/wiki/Avocado"
	},
	{
	  "name": "Chili pepper",
	  "kind": "berry",
	  "considered": "vegetable",
	  "link": "https://simple.wikipedia.org/wiki/Chili_pepper"
	},
	{
	  "name": "Corn",
	  "kind": "fruit",
	  "considered": "vegetable",
	  "link": "https://simple.wikipedia.org/wiki/Corn_kernel"
	},
	{
	  "name": "Cucumber",
	  "kind": "fruit",
	  "considered": "vegetable",
	  "link": "https://simple.wikipedia.org/wiki/Cucumber"
	},
	{
	  "name": "Eggplant",
	  "kind": "berry",
	  "considered": "vegetable",
	  "link": "https://simple.wikipedia.org/wiki/Eggplant"
	},
	{
	  "name": "Olive",
	  "kind": "fruit",
	  "considered": "vegetable",
	  "link": "https://simple.wikipedia.org/wiki/Olive_(fruit)"
	},
	{
	  "name": "Paprika",
	  "kind": "fruit",
	  "considered": "vegetable",
	  "link": "https://en.wikipedia.org/wiki/Paprika"
	},
	{
	  "name": "Pea",
	  "kind": "fruit",
	  "considered": "vegetable",
	  "link": "https://simple.wikipedia.org/wiki/Pea"
	},
	{
	  "name": "Pumpkin",
	  "kind": "berry",
	  "considered": "vegetable",
	  "link": "https://simple.wikipedia.org/wiki/Pumpkin"
	},
	{
	  "name": "Squash",
	  "kind": "fruit",
	  "considered": "vegetable",
	  "link": "https://simple.wikipedia.org/wiki/Squash_(plant)"
	},
	{
	  "name": "Tomato",
	  "kind": "fruit",
	  "considered": "vegetable",
	  "link": "https://simple.wikipedia.org/wiki/Tomato"
	},
	{
	  "name": "Zucchini",
	  "kind": "fruit",
	  "considered": "vegetable",
	  "link": "https://simple.wikipedia.org/wiki/Zucchini"
	}
  ]